-----BEGIN PGP SIGNATURE-----

iHUEABYIAB0WIQTr+93hH7kY1E0fVsH58Khzvpd37QUCYCqxjAAKCRD58Khzvpd3
7atfAQD8T1YcMqAJZzOgY05lphmIHSsaDU4SWlz3OKlZktrDUQD/RdRUt2vmy9ho
Fqm4xRukVx5d1GgNHhPUuk1zoGPhNQA=
=WPhE
-----END PGP SIGNATURE-----
